// Jest Snapshot v1, https://goo.gl/fbAQLP

exports[`Details tests renders Details component  1`] = `
ShallowWrapper {
  Symbol(enzyme.__root__): [Circular],
  Symbol(enzyme.__unrendered__): <Details
    followers={
      Array [
        Object {
          "display_name": "test",
          "id": 1234,
        },
      ]
    }
    following={
      Array [
        Object {
          "display_name": "test",
          "id": 1234,
        },
      ]
    }
    match={
      Object {
        "path": "http://baseUrl/",
        "url": "http://baseUrl/",
      }
    }
    projects={
      Array [
        Object {
          "id": 1234,
          "name": "my project",
        },
      ]
    }
  />,
  Symbol(enzyme.__renderer__): Object {
    "batchedUpdates": [Function],
    "getNode": [Function],
    "render": [Function],
    "simulateError": [Function],
    "simulateEvent": [Function],
    "unmount": [Function],
  },
  Symbol(enzyme.__node__): Object {
    "instance": null,
    "key": undefined,
    "nodeType": "class",
    "props": Object {
      "children": Array [
        <theme__Tabs>
          <theme__TabLink
            activeClassName="active"
            to="http://baseUrl//projects"
          >
            Projects
          </theme__TabLink>
          <theme__TabLink
            activeClassName="active"
            to="http://baseUrl//followers"
          >
            Followers
          </theme__TabLink>
          <theme__TabLink
            activeClassName="active"
            to="http://baseUrl//following"
          >
            Following
          </theme__TabLink>
        </theme__Tabs>,
        <Route
          path="http://baseUrl//followers"
          render={[Function]}
        />,
        <Route
          path="http://baseUrl//following"
          render={[Function]}
        />,
        <Route
          path="http://baseUrl//projects"
          render={[Function]}
        />,
      ],
    },
    "ref": null,
    "rendered": Array [
      Object {
        "instance": null,
        "key": undefined,
        "nodeType": "class",
        "props": Object {
          "children": Array [
            <theme__TabLink
              activeClassName="active"
              to="http://baseUrl//projects"
            >
              Projects
            </theme__TabLink>,
            <theme__TabLink
              activeClassName="active"
              to="http://baseUrl//followers"
            >
              Followers
            </theme__TabLink>,
            <theme__TabLink
              activeClassName="active"
              to="http://baseUrl//following"
            >
              Following
            </theme__TabLink>,
          ],
        },
        "ref": null,
        "rendered": Array [
          Object {
            "instance": null,
            "key": undefined,
            "nodeType": "class",
            "props": Object {
              "activeClassName": "active",
              "children": "Projects",
              "to": "http://baseUrl//projects",
            },
            "ref": null,
            "rendered": "Projects",
            "type": [Function],
          },
          Object {
            "instance": null,
            "key": undefined,
            "nodeType": "class",
            "props": Object {
              "activeClassName": "active",
              "children": "Followers",
              "to": "http://baseUrl//followers",
            },
            "ref": null,
            "rendered": "Followers",
            "type": [Function],
          },
          Object {
            "instance": null,
            "key": undefined,
            "nodeType": "class",
            "props": Object {
              "activeClassName": "active",
              "children": "Following",
              "to": "http://baseUrl//following",
            },
            "ref": null,
            "rendered": "Following",
            "type": [Function],
          },
        ],
        "type": [Function],
      },
      Object {
        "instance": null,
        "key": undefined,
        "nodeType": "class",
        "props": Object {
          "path": "http://baseUrl//followers",
          "render": [Function],
        },
        "ref": null,
        "rendered": null,
        "type": [Function],
      },
      Object {
        "instance": null,
        "key": undefined,
        "nodeType": "class",
        "props": Object {
          "path": "http://baseUrl//following",
          "render": [Function],
        },
        "ref": null,
        "rendered": null,
        "type": [Function],
      },
      Object {
        "instance": null,
        "key": undefined,
        "nodeType": "class",
        "props": Object {
          "path": "http://baseUrl//projects",
          "render": [Function],
        },
        "ref": null,
        "rendered": null,
        "type": [Function],
      },
    ],
    "type": [Function],
  },
  Symbol(enzyme.__nodes__): Array [
    Object {
      "instance": null,
      "key": undefined,
      "nodeType": "class",
      "props": Object {
        "children": Array [
          <theme__Tabs>
            <theme__TabLink
              activeClassName="active"
              to="http://baseUrl//projects"
            >
              Projects
            </theme__TabLink>
            <theme__TabLink
              activeClassName="active"
              to="http://baseUrl//followers"
            >
              Followers
            </theme__TabLink>
            <theme__TabLink
              activeClassName="active"
              to="http://baseUrl//following"
            >
              Following
            </theme__TabLink>
          </theme__Tabs>,
          <Route
            path="http://baseUrl//followers"
            render={[Function]}
          />,
          <Route
            path="http://baseUrl//following"
            render={[Function]}
          />,
          <Route
            path="http://baseUrl//projects"
            render={[Function]}
          />,
        ],
      },
      "ref": null,
      "rendered": Array [
        Object {
          "instance": null,
          "key": undefined,
          "nodeType": "class",
          "props": Object {
            "children": Array [
              <theme__TabLink
                activeClassName="active"
                to="http://baseUrl//projects"
              >
                Projects
              </theme__TabLink>,
              <theme__TabLink
                activeClassName="active"
                to="http://baseUrl//followers"
              >
                Followers
              </theme__TabLink>,
              <theme__TabLink
                activeClassName="active"
                to="http://baseUrl//following"
              >
                Following
              </theme__TabLink>,
            ],
          },
          "ref": null,
          "rendered": Array [
            Object {
              "instance": null,
              "key": undefined,
              "nodeType": "class",
              "props": Object {
                "activeClassName": "active",
                "children": "Projects",
                "to": "http://baseUrl//projects",
              },
              "ref": null,
              "rendered": "Projects",
              "type": [Function],
            },
            Object {
              "instance": null,
              "key": undefined,
              "nodeType": "class",
              "props": Object {
                "activeClassName": "active",
                "children": "Followers",
                "to": "http://baseUrl//followers",
              },
              "ref": null,
              "rendered": "Followers",
              "type": [Function],
            },
            Object {
              "instance": null,
              "key": undefined,
              "nodeType": "class",
              "props": Object {
                "activeClassName": "active",
                "children": "Following",
                "to": "http://baseUrl//following",
              },
              "ref": null,
              "rendered": "Following",
              "type": [Function],
            },
          ],
          "type": [Function],
        },
        Object {
          "instance": null,
          "key": undefined,
          "nodeType": "class",
          "props": Object {
            "path": "http://baseUrl//followers",
            "render": [Function],
          },
          "ref": null,
          "rendered": null,
          "type": [Function],
        },
        Object {
          "instance": null,
          "key": undefined,
          "nodeType": "class",
          "props": Object {
            "path": "http://baseUrl//following",
            "render": [Function],
          },
          "ref": null,
          "rendered": null,
          "type": [Function],
        },
        Object {
          "instance": null,
          "key": undefined,
          "nodeType": "class",
          "props": Object {
            "path": "http://baseUrl//projects",
            "render": [Function],
          },
          "ref": null,
          "rendered": null,
          "type": [Function],
        },
      ],
      "type": [Function],
    },
  ],
  Symbol(enzyme.__options__): Object {
    "adapter": ReactSixteenAdapter {
      "options": Object {
        "enableComponentDidUpdateOnSetState": true,
        "lifecycles": Object {
          "componentDidUpdate": Object {
            "onSetState": true,
          },
          "getDerivedStateFromProps": true,
          "getSnapshotBeforeUpdate": true,
          "setState": Object {
            "skipsComponentDidUpdateOnNullish": true,
          },
        },
      },
    },
  },
}
`;
