// Jest Snapshot v1, https://goo.gl/fbAQLP

exports[`Projects tests renders Projects component  1`] = `
ShallowWrapper {
  Symbol(enzyme.__root__): [Circular],
  Symbol(enzyme.__unrendered__): <Projects
    project={
      Array [
        Object {
          "covers": Object {
            "250": "http://behance.com",
          },
          "fields": Array [
            "this ",
            " is",
            "field",
          ],
          "id": 123,
          "name": "this is name",
          "stats": Object {
            "appreciations": 113,
            "comments": 12,
            "views": 1234,
          },
          "url": "http://behance.com",
        },
        Object {
          "covers": Object {
            "250": "http://behance.com",
          },
          "fields": Array [
            "this ",
            " is",
            "field",
          ],
          "id": 1234,
          "name": "this is name",
          "stats": Object {
            "appreciations": 113,
            "comments": 12,
            "views": 1234,
          },
          "url": "http://behance.com",
        },
      ]
    }
  />,
  Symbol(enzyme.__renderer__): Object {
    "batchedUpdates": [Function],
    "getNode": [Function],
    "render": [Function],
    "simulateError": [Function],
    "simulateEvent": [Function],
    "unmount": [Function],
  },
  Symbol(enzyme.__node__): Object {
    "instance": null,
    "key": undefined,
    "nodeType": "class",
    "props": Object {
      "children": undefined,
    },
    "ref": null,
    "rendered": null,
    "type": [Function],
  },
  Symbol(enzyme.__nodes__): Array [
    Object {
      "instance": null,
      "key": undefined,
      "nodeType": "class",
      "props": Object {
        "children": undefined,
      },
      "ref": null,
      "rendered": null,
      "type": [Function],
    },
  ],
  Symbol(enzyme.__options__): Object {
    "adapter": ReactSixteenAdapter {
      "options": Object {
        "enableComponentDidUpdateOnSetState": true,
        "lifecycles": Object {
          "componentDidUpdate": Object {
            "onSetState": true,
          },
          "getDerivedStateFromProps": true,
          "getSnapshotBeforeUpdate": true,
          "setState": Object {
            "skipsComponentDidUpdateOnNullish": true,
          },
        },
      },
    },
  },
}
`;
